@startuml

'skinparam roundCorner 15

cloud Cloud
actor "Cell Phone" as cell
actor "Push-Buttons" as button
rectangle rectangleVeryLOOOOOOOOOOOOOOOOOOOg as "Raspberry Pi" {
    node "Elevator Controller" as EC #aliceblue;line:blue;line.bold;text:blue
    component "IO Handler Sim" as IOSim #b4d4a6
    component "IO Handler" as IO #e7a394
}
component "Hardware" as HW
agent "Headless-Simulator" as HLSim #d7f3dc
agent "GUI-Simulator" as GUISim #d7f3dc
file "Log File" as fLog
file "Config File" as fCnfg
control Motor



cell -> Cloud
Cloud -le-> cell

Cloud --> EC
EC -le-> Cloud

EC --> IO
IO -le-> EC

EC --> IOSim
IOSim -le-> EC

IO --> HW
HW -le-> IO

IOSim --> HLSim : TCP/IP
HLSim -up-> IOSim
IOSim --> GUISim : TCP/IP
GUISim -up-> IOSim


fCnfg -do-> EC
EC -> fLog

button -up-> HW
HW --> Motor

@enduml
